{
  "kind": "collectionType",
  "collectionName": "antologias",
  "info": {
    "name": "antologias",
    "description": ""
  },
  "options": {
    "increments": true,
    "timestamps": true,
    "draftAndPublish": true
  },
  "attributes": {
    "nombre": {
      "type": "text"
    },
    "archivo": {
      "model": "file",
      "via": "related",
      "allowedTypes": [
        "images",
        "files",
        "videos"
      ],
      "plugin": "upload",
      "required": false
    },
    "descripcion": {
      "type": "text"
    },
    "estatus": {
      "type": "boolean"
    },
    "id_maestro": {
      "via": "antologias",
      "model": "maestros"
    },
    "id_smts": {
      "model": "semestres",
      "via": "antologias"
    },
    "id_grupo": {
      "model": "grupo",
      "via": "antologias"
    }
  }
}
